i2c_master_tb.vcd
$date
	Sun Jul 05 16:08:58 2026
$end
$version
	Icarus Verilog
$end
$timescale
	1ps
$end
$scope module i2c_master_tb $end
$var wire 1 ! scl $end
$var wire 1 " sda $end
$var wire 8 # rx_data [7:0] $end
$var wire 1 $ busy $end
$var wire 1 % ack_error $end
$var reg 7 & addr [6:0] $end
$var reg 1 ' clk $end
$var reg 1 ( rst_n $end
$var reg 1 ) rw $end
$var reg 1 * start $end
$var reg 8 + tx_data [7:0] $end
$scope module dut $end
$var wire 1 % ack_error $end
$var wire 7 , addr [6:0] $end
$var wire 1 $ busy $end
$var wire 1 ' clk $end
$var wire 1 ( rst_n $end
$var wire 1 ) rw $end
$var wire 8 - rx_data [7:0] $end
$var wire 1 ! scl $end
$var wire 1 . scl_drv $end
$var wire 1 / scl_in $end
$var wire 1 0 scl_oe $end
$var wire 1 " sda $end
$var wire 1 1 sda_drv $end
$var wire 1 2 sda_drv_shift $end
$var wire 1 3 sda_in $end
$var wire 1 4 sda_oe $end
$var wire 1 5 sda_oe_shift $end
$var wire 1 * start $end
$var wire 8 6 tx_data [7:0] $end
$var wire 1 7 shift_shift $end
$var wire 8 8 shift_out [7:0] $end
$var wire 1 9 shift_load $end
$var wire 8 : shift_in [7:0] $end
$var wire 1 ; sda_oe_ctrl $end
$var wire 1 < sda_drv_ctrl $end
$var wire 1 = scl_oe_ctrl $end
$var wire 1 > scl_drv_ctrl $end
$var wire 8 ? controller_rx [7:0] $end
$var wire 1 @ controller_busy $end
$var wire 1 A controller_ack_err $end
$var wire 1 B clk_en $end
$scope module clk_div_u $end
$var wire 1 ' clk $end
$var wire 1 ( rst_n $end
$var reg 1 B clk_en $end
$var reg 32 C counter [31:0] $end
$upscope $end
$scope module ctrl_u $end
$var wire 7 D addr_i [6:0] $end
$var wire 1 ' clk $end
$var wire 1 B clk_en $end
$var wire 1 ( rst_n $end
$var wire 1 ) rw_i $end
$var wire 1 / scl_i $end
$var wire 1 3 sda_i $end
$var wire 1 * start_i $end
$var wire 8 E tx_data_i [7:0] $end
$var wire 1 7 shift_shift_o $end
$var wire 8 F shift_out_i [7:0] $end
$var wire 1 9 shift_load_o $end
$var wire 8 G shift_in_o [7:0] $end
$var wire 1 ; sda_oe_o $end
$var wire 1 < sda_drv_o $end
$var wire 1 = scl_oe_o $end
$var wire 1 > scl_drv_o $end
$var wire 8 H rx_data_o [7:0] $end
$var wire 1 @ busy_o $end
$var wire 1 A ack_err_o $end
$scope module fsm_u $end
$var wire 7 I addr_i [6:0] $end
$var wire 1 ' clk $end
$var wire 1 B clk_en $end
$var wire 1 ( rst_n $end
$var wire 1 ) rw_i $end
$var wire 1 * start_i $end
$var wire 8 J tx_data_i [7:0] $end
$var wire 8 K shift_out_i [7:0] $end
$var reg 1 A ack_err_o $end
$var reg 4 L bit_cnt [3:0] $end
$var reg 1 @ busy_o $end
$var reg 8 M rx_data_o [7:0] $end
$var reg 1 > scl_drv_o $end
$var reg 1 = scl_oe_o $end
$var reg 1 < sda_drv_o $end
$var reg 1 ; sda_oe_o $end
$var reg 8 N shift_in_o [7:0] $end
$var reg 1 9 shift_load_o $end
$var reg 1 7 shift_shift_o $end
$var reg 3 O state [2:0] $end
$upscope $end
$upscope $end
$scope module shift_u $end
$var wire 1 ' clk $end
$var wire 8 P din [7:0] $end
$var wire 1 9 load $end
$var wire 1 ( rst_n $end
$var wire 1 2 sda_drv_o $end
$var wire 1 3 sda_i $end
$var wire 1 5 sda_oe_o $end
$var wire 1 7 shift $end
$var wire 1 Q ack_o $end
$var reg 8 R dout [7:0] $end
$var reg 8 S r [7:0] $end
$upscope $end
$upscope $end
$scope task do_transfer $end
$var reg 7 T op_addr [6:0] $end
$var reg 8 U op_data [7:0] $end
$var reg 1 V op_rw $end
$upscope $end
$upscope $end
$enddefinitions $end
#0
$dumpvars
xV
bx U
bx T
b0 S
b0 R
0Q
b0 P
b0 O
b0 N
b0 M
b0 L
b0 K
b10100101 J
b1010000 I
b0 H
b0 G
b0 F
b10100101 E
b1010000 D
b0 C
0B
0A
0@
b0 ?
0>
0=
0<
0;
b0 :
09
b0 8
07
b10100101 6
05
04
13
02
01
00
1/
0.
b0 -
b1010000 ,
b10100101 +
0*
0)
0(
0'
b1010000 &
0%
0$
b0 #
1"
1!
$end
#5000
1'
#10000
0'
#15000
1'
#20000
0'
1(
#25000
b1 C
1'
#30000
0'
#35000
b10 C
1'
#40000
0'
b10100101 U
b1010000 T
0V
#45000
b11 C
1*
1'
#50000
0'
#55000
b100 C
0*
1'
#60000
0'
#65000
b101 C
1'
#70000
0'
#75000
b110 C
1'
#80000
0'
#85000
b111 C
1'
#90000
0'
#95000
b1000 C
b0 +
b0 6
b0 E
b0 J
1)
1*
1'
b0 U
1V
#100000
0'
#105000
b1001 C
0*
1'
#110000
0'
#115000
b1010 C
1'
#120000
0'
#125000
b1011 C
1'
#130000
0'
#135000
b1100 C
1'
#140000
0'
#145000
b1101 C
1'
#150000
0'
#155000
b1110 C
1'
#160000
0'
#165000
b1111 C
1'
#170000
0'
#175000
b10000 C
1'
#180000
0'
#185000
b10001 C
1'
#190000
0'
#195000
b10010 C
1'
#200000
0'
#205000
b10011 C
1'
#210000
0'
#215000
b10100 C
1'
#220000
0'
#225000
b10101 C
1'
#230000
0'
#235000
b10110 C
1'
#240000
0'
#245000
b10111 C
1'
#250000
0'
#255000
b11000 C
1'
#260000
0'
#265000
b11001 C
1'
#270000
0'
#275000
b11010 C
1'
#280000
0'
#285000
b11011 C
1'
#290000
0'
#295000
b11100 C
1'
#300000
0'
#305000
b11101 C
1'
#310000
0'
#315000
b11110 C
1'
#320000
0'
#325000
b11111 C
1'
